INDEX VERSION 1.4+C:\Users\bruno\Documents\TesteBuilders\.metadata\.plugins\org.eclipse.wst.jsdt.core\indexes
60123189.index
2050853966.index
1718879351.index
1951589341.index
627446405.index
3868500945.index
3192915163.index
1718879351.index
