127.0.0.1 - - [28/Aug/2020:10:58:28 -0300] "GET / HTTP/1.1" 404 763
0:0:0:0:0:0:0:1 - - [28/Aug/2020:10:58:33 -0300] "GET /favicon.ico HTTP/1.1" 404 774
0:0:0:0:0:0:0:1 - - [28/Aug/2020:10:58:37 -0300] "GET /builders/clientes/form HTTP/1.1" 500 6067
0:0:0:0:0:0:0:1 - - [28/Aug/2020:10:58:45 -0300] "GET /builders/clientes/form HTTP/1.1" 500 6067
0:0:0:0:0:0:0:1 - - [28/Aug/2020:10:58:45 -0300] "GET /builders/clientes/form HTTP/1.1" 500 6067
0:0:0:0:0:0:0:1 - - [28/Aug/2020:10:58:46 -0300] "GET /builders/clientes/form HTTP/1.1" 500 6067
0:0:0:0:0:0:0:1 - - [28/Aug/2020:11:13:05 -0300] "GET /builders/clientes/form HTTP/1.1" 200 502
0:0:0:0:0:0:0:1 - - [28/Aug/2020:11:13:31 -0300] "POST /builders/clientes HTTP/1.1" 404 783
127.0.0.1 - - [28/Aug/2020:11:14:23 -0300] "GET / HTTP/1.1" 404 763
0:0:0:0:0:0:0:1 - - [28/Aug/2020:11:15:17 -0300] "POST /builders/clientes HTTP/1.1" 404 783
0:0:0:0:0:0:0:1 - - [28/Aug/2020:11:15:20 -0300] "POST /builders/clientes HTTP/1.1" 404 783
0:0:0:0:0:0:0:1 - - [28/Aug/2020:11:15:39 -0300] "GET /builders/clientes/form HTTP/1.1" 200 502
0:0:0:0:0:0:0:1 - - [28/Aug/2020:11:15:46 -0300] "POST /builders/clientes HTTP/1.1" 404 783
0:0:0:0:0:0:0:1 - - [28/Aug/2020:11:21:00 -0300] "POST /builders/clientes HTTP/1.1" 200 177
127.0.0.1 - - [28/Aug/2020:11:40:15 -0300] "GET / HTTP/1.1" 404 763
0:0:0:0:0:0:0:1 - - [28/Aug/2020:11:40:39 -0300] "GET /builders/clientes HTTP/1.1" 500 5367
127.0.0.1 - - [28/Aug/2020:11:41:21 -0300] "GET / HTTP/1.1" 404 763
0:0:0:0:0:0:0:1 - - [28/Aug/2020:11:41:37 -0300] "GET /builders/clientes HTTP/1.1" 500 5367
0:0:0:0:0:0:0:1 - - [28/Aug/2020:11:42:25 -0300] "GET /builders/clientes HTTP/1.1" 200 3656
127.0.0.1 - - [28/Aug/2020:11:48:02 -0300] "GET / HTTP/1.1" 404 763
0:0:0:0:0:0:0:1 - - [28/Aug/2020:11:48:05 -0300] "GET /builders/clientes HTTP/1.1" 200 1230
0:0:0:0:0:0:0:1 - - [28/Aug/2020:11:48:39 -0300] "GET /builders/clientes HTTP/1.1" 200 1230
