127.0.0.1 - - [01/Sep/2020:10:26:23 -0300] "GET / HTTP/1.1" 404 763
0:0:0:0:0:0:0:1 - - [01/Sep/2020:10:26:46 -0300] "GET /builders/clientes/ HTTP/1.1" 500 7671
0:0:0:0:0:0:0:1 - - [01/Sep/2020:10:26:47 -0300] "GET /favicon.ico HTTP/1.1" 404 774
0:0:0:0:0:0:0:1 - - [01/Sep/2020:10:54:59 -0300] "GET /builders/clientes/ HTTP/1.1" 500 4041
127.0.0.1 - - [01/Sep/2020:10:55:39 -0300] "GET / HTTP/1.1" 404 763
0:0:0:0:0:0:0:1 - - [01/Sep/2020:10:55:46 -0300] "GET /builders/clientes/ HTTP/1.1" 500 4041
127.0.0.1 - - [01/Sep/2020:10:59:53 -0300] "GET / HTTP/1.1" 404 763
0:0:0:0:0:0:0:1 - - [01/Sep/2020:11:00:05 -0300] "GET /builders/clientes/ HTTP/1.1" 500 4041
0:0:0:0:0:0:0:1 - - [01/Sep/2020:11:00:06 -0300] "GET /builders/clientes/ HTTP/1.1" 500 6035
0:0:0:0:0:0:0:1 - - [01/Sep/2020:11:00:06 -0300] "GET /builders/clientes/ HTTP/1.1" 500 6035
0:0:0:0:0:0:0:1 - - [01/Sep/2020:11:00:08 -0300] "GET /builders/clientes/ HTTP/1.1" 500 6035
0:0:0:0:0:0:0:1 - - [01/Sep/2020:11:00:09 -0300] "GET /builders/clientes/ HTTP/1.1" 500 4041
0:0:0:0:0:0:0:1 - - [01/Sep/2020:11:00:09 -0300] "GET /builders/clientes/ HTTP/1.1" 500 6035
0:0:0:0:0:0:0:1 - - [01/Sep/2020:11:00:10 -0300] "GET /builders/clientes/ HTTP/1.1" 500 6035
0:0:0:0:0:0:0:1 - - [01/Sep/2020:11:00:12 -0300] "GET /builders/clientes/ HTTP/1.1" 500 6035
0:0:0:0:0:0:0:1 - - [01/Sep/2020:11:00:29 -0300] "GET /builders/clientes/ HTTP/1.1" 500 4041
